,Sky Cover,Visibility,Fog,Thunderstorm,Air Temperature,Dew Point,Relative Humidity,Wind Speed,Atmospheric Pressure,Precipitation
0,0.375,10.0,0,0,66,61,84,8,29.43,0.0
1,0.375,10.0,0,0,64,59,84,3,29.43,0.0
2,0.375,10.0,0,0,63,58,84,6,29.43,0.0
3,1.0,10.0,0,0,62,57,84,7,29.44,0.0
4,0.625,10.0,0,0,60,56,87,7,29.45,0.0
5,0.625,10.0,0,0,60,55,84,7,29.46,0.0
6,0.375,10.0,0,0,62,55,78,8,29.48,0.0
7,0.375,10.0,0,0,65,56,73,6,29.49,0.0
8,0.375,10.0,0,0,69,56,63,8,29.5,0.0
9,0.375,10.0,0,0,71,56,59,7,29.5,0.0
10,0.625,10.0,0,0,73,54,52,11,29.5,0.0
11,0.625,10.0,0,0,73,52,48,11,29.5,0.0
12,0.625,10.0,0,0,75,53,46,17,29.51,0.0
13,0.625,10.0,0,0,74,54,50,16,29.51,0.0
14,0.375,10.0,0,0,73,53,50,17,29.51,0.0
15,0.625,10.0,0,0,73,54,52,13,29.52,0.0
16,0.625,10.0,0,0,69,54,59,14,29.53,0.0
17,0.625,10.0,0,0,69,54,59,8,29.54,0.0
18,0.375,10.0,0,0,66,55,68,7,29.56,0.0
19,0.375,10.0,0,0,64,56,75,7,29.59,0.0
20,0.375,10.0,0,0,62,56,81,5,29.6,0.0
21,0.375,10.0,0,0,61,56,84,5,29.6,0.0
22,0.375,10.0,0,0,60,56,87,0,29.62,0.0
23,0.375,10.0,0,0,60,56,87,6,29.62,0.0
24,0.375,10.0,0,0,59,56,90,5,29.62,0.0
25,0.125,10.0,0,0,58,56,93,5,29.63,0.0
26,0.375,10.0,0,0,58,57,97,6,29.63,0.0
27,0.375,10.0,0,0,57,55,93,5,29.64,0.0
28,0.125,10.0,0,0,57,54,90,6,29.67,0.0
29,0.125,10.0,0,0,56,53,90,5,29.69,0.0
30,0.125,10.0,0,0,60,55,84,6,29.7,0.0
31,0.125,10.0,0,0,63,55,75,6,29.71,0.0
32,0.375,10.0,0,0,66,55,68,3,29.72,0.0
33,0.375,10.0,0,0,68,55,63,7,29.73,0.0
34,0.375,10.0,0,0,71,56,59,10,29.72,0.0
35,0.375,10.0,0,0,72,55,55,8,29.72,0.0
36,0.375,10.0,0,0,74,51,45,11,29.73,0.0
37,0.375,10.0,0,0,74,53,48,11,29.73,0.0
38,0.375,10.0,0,0,73,51,46,10,29.73,0.0
39,0.375,10.0,0,0,72,52,50,11,29.73,0.0
40,0.375,10.0,0,0,71,53,53,11,29.73,0.0
41,0.375,10.0,0,0,68,53,59,10,29.73,0.0
42,0.375,10.0,0,0,64,53,68,6,29.74,0.0
43,0.125,10.0,0,0,61,54,78,0,29.75,0.0
44,0.125,10.0,0,0,59,53,81,3,29.76,0.0
45,0.125,10.0,0,0,56,53,90,3,29.77,0.0
46,0.125,10.0,0,0,55,53,93,0,29.78,0.0
47,0.125,10.0,0,0,53,52,96,0,29.77,0.0
48,0.125,10.0,0,0,52,51,96,0,29.78,0.0
49,0.125,10.0,0,0,52,51,96,3,29.78,0.0
50,0.125,10.0,0,0,51,51,100,0,29.79,0.0
51,0.125,10.0,0,0,51,50,96,0,29.8,0.0
52,0.125,10.0,0,0,49,48,96,0,29.8,0.0
53,0.125,10.0,1,0,50,48,93,0,29.81,0.0
54,0.125,10.0,0,0,53,51,93,0,29.81,0.0
55,0.625,10.0,0,0,54,51,90,0,29.81,0.0
56,0.625,10.0,0,0,58,53,84,0,29.81,0.0
57,0.125,10.0,0,0,60,54,81,0,29.81,0.0
58,0.125,10.0,0,0,64,54,70,0,29.81,0.0
59,0.125,10.0,0,0,68,54,61,0,29.8,0.0
60,0.125,10.0,0,0,69,52,55,0,29.79,0.0
61,0.125,10.0,0,0,73,51,46,6,29.78,0.0
62,0.125,10.0,0,0,74,49,41,0,29.76,0.0
63,0.125,10.0,0,0,75,50,42,0,29.75,0.0
64,0.125,10.0,0,0,75,50,42,5,29.74,0.0
65,0.125,10.0,0,0,73,52,48,7,29.74,0.0
66,0.125,10.0,0,0,69,54,59,7,29.73,0.0
67,0.125,10.0,0,0,66,55,68,5,29.74,0.0
68,0.0,10.0,0,0,62,55,78,0,29.75,0.0
69,0.0,10.0,0,0,62,55,78,3,29.76,0.0
70,0.0,10.0,0,0,59,55,87,0,29.76,0.0
71,0.0,10.0,0,0,59,54,84,3,29.77,0.0
72,0.0,10.0,0,0,57,53,87,0,29.77,0.0
73,0.0,10.0,0,0,55,52,90,3,29.78,0.0
74,0.0,10.0,0,0,54,52,93,3,29.78,0.0
75,0.0,10.0,0,0,54,52,93,3,29.79,0.0
76,0.125,10.0,0,0,54,52,93,3,29.8,0.0
77,0.125,10.0,0,0,53,51,93,0,29.81,0.0
78,0.0,10.0,0,0,54,52,93,0,29.82,0.0
79,0.125,10.0,0,0,56,53,90,0,29.84,0.0
80,0.125,10.0,0,0,60,55,84,0,29.84,0.0
81,0.125,10.0,0,0,60,55,84,0,29.84,0.0
82,0.125,10.0,0,0,64,57,78,0,29.85,0.0
83,0.125,10.0,0,0,70,59,68,0,29.85,0.0
84,0.125,10.0,0,0,72,59,64,3,29.84,0.0
85,0.125,10.0,0,0,76,59,56,3,29.83,0.0
86,0.375,10.0,0,0,77,59,54,6,29.83,0.0
87,0.125,10.0,0,0,78,57,49,6,29.8,0.0
88,0.125,10.0,0,0,79,59,50,7,29.79,0.0
89,0.125,10.0,0,0,78,58,50,9,29.78,0.0
90,0.125,10.0,0,0,77,59,54,6,29.78,0.0
91,0.125,10.0,0,0,74,59,60,3,29.79,0.0
92,0.125,10.0,0,0,68,59,73,0,29.79,0.0
93,0.125,10.0,0,0,68,60,76,0,29.8,0.0
94,0.125,10.0,0,0,64,60,87,0,29.8,0.0
95,0.0,10.0,0,0,63,60,90,0,29.81,0.0
96,0.0,10.0,0,0,62,59,90,5,29.8,0.0
97,0.0,10.0,0,0,62,59,90,0,29.79,0.0
98,0.125,10.0,0,0,60,58,93,0,29.79,0.0
99,0.125,10.0,0,0,58,57,97,3,29.79,0.0
100,0.0,10.0,0,0,57,56,96,5,29.79,0.0
101,0.0,10.0,0,0,56,56,100,0,29.8,0.0
102,0.0,10.0,0,0,55,55,100,3,29.81,0.0
103,0.125,10.0,0,0,55,55,100,5,29.82,0.0
104,0.125,10.0,1,0,59,57,93,0,29.83,0.0
105,0.125,10.0,0,0,64,58,81,3,29.82,0.0
106,0.125,10.0,0,0,69,60,73,0,29.81,0.0
107,0.375,10.0,0,0,74,60,62,0,29.8,0.0
108,0.375,10.0,0,0,77,60,56,3,29.78,0.0
109,0.375,10.0,0,0,80,59,49,3,29.76,0.0
110,0.375,10.0,0,0,83,61,48,3,29.74,0.0
111,0.375,10.0,0,0,83,56,40,7,29.71,0.0
112,0.375,10.0,0,0,83,56,40,7,29.69,0.0
113,0.375,10.0,0,0,83,57,41,3,29.68,0.0
114,0.375,10.0,0,0,81,62,53,8,29.68,0.0
115,0.375,10.0,0,0,77,60,56,10,29.68,0.0
116,0.375,10.0,0,0,72,60,66,7,29.68,0.0
117,0.375,10.0,0,0,70,61,73,0,29.68,0.0
118,0.375,10.0,0,0,64,61,90,0,29.68,0.0
119,0.125,10.0,0,0,65,60,84,0,29.69,0.0
120,0.125,10.0,0,0,62,59,90,3,29.67,0.0
121,0.125,10.0,0,0,62,57,84,0,29.68,0.0
122,0.0,10.0,0,0,59,57,93,0,29.68,0.0
123,0.0,10.0,0,0,59,56,90,0,29.67,0.0
124,0.0,10.0,0,0,59,56,90,0,29.66,0.0
125,0.125,10.0,0,0,56,55,96,3,29.66,0.0
126,0.125,10.0,0,0,55,54,96,3,29.67,0.0
127,0.375,10.0,1,0,56,54,93,0,29.69,0.0
128,0.125,10.0,0,0,60,56,87,0,29.69,0.0
129,0.125,10.0,0,0,66,57,73,0,29.69,0.0
130,0.125,10.0,0,0,70,58,66,0,29.68,0.0
131,0.125,10.0,0,0,75,59,58,0,29.68,0.0
132,0.125,10.0,0,0,79,59,50,5,29.67,0.0
133,0.125,10.0,0,0,82,59,46,3,29.66,0.0
134,0.125,10.0,0,0,82,57,43,0,29.65,0.0
135,0.375,10.0,0,0,84,56,38,0,29.63,0.0
136,0.375,10.0,0,0,85,55,36,5,29.62,0.0
137,0.375,10.0,0,0,85,57,39,0,29.6,0.0
138,0.375,10.0,0,0,82,58,44,10,29.6,0.0
139,0.375,10.0,0,0,79,57,47,8,29.6,0.0
140,0.375,10.0,0,0,71,60,68,3,29.6,0.0
141,0.125,10.0,0,0,69,60,73,0,29.61,0.0
142,0.0,10.0,0,0,65,59,81,3,29.61,0.0
143,0.0,10.0,0,0,67,59,76,3,29.6,0.0
144,0.0,10.0,0,0,65,58,78,3,29.6,0.0
145,0.0,10.0,0,0,63,57,81,0,29.59,0.0
146,0.125,10.0,0,0,62,57,84,3,29.59,0.0
147,0.125,10.0,0,0,60,57,90,3,29.59,0.0
148,0.125,10.0,0,0,58,56,93,3,29.6,0.0
149,0.125,10.0,0,0,58,55,90,3,29.6,0.0
150,0.125,10.0,0,0,57,55,93,3,29.6,0.0
151,0.375,10.0,0,0,56,55,96,6,29.6,0.0
152,0.375,10.0,0,0,61,58,90,0,29.6,0.0
153,0.375,10.0,0,0,67,61,81,5,29.59,0.0
154,0.375,10.0,0,0,73,63,71,5,29.59,0.0
155,0.375,10.0,0,0,79,64,60,7,29.58,0.0
156,0.375,10.0,0,0,83,63,51,5,29.57,0.0
157,0.375,10.0,0,0,87,60,40,0,29.56,0.0
158,0.625,10.0,0,0,88,59,38,6,29.54,0.0
159,0.375,10.0,0,0,86,64,48,7,29.52,0.0
160,0.375,10.0,0,0,87,66,50,7,29.5,0.0
161,0.375,10.0,0,0,85,66,53,8,29.48,0.0
162,0.375,10.0,0,0,84,66,55,7,29.48,0.0
163,0.625,10.0,0,0,81,66,60,6,29.47,0.0
164,0.375,10.0,0,0,77,67,71,6,29.47,0.0
165,0.375,10.0,0,0,76,66,71,6,29.48,0.0
166,0.625,10.0,0,0,75,66,74,6,29.47,0.0
167,1.0,10.0,0,0,77,65,67,8,29.47,0.0
168,1.0,10.0,0,0,75,66,74,7,29.46,0.0
169,1.0,10.0,0,0,74,68,82,8,29.45,0.0
170,1.0,10.0,0,0,73,68,84,8,29.47,0.0
171,1.0,10.0,0,0,71,69,93,7,29.47,0.0
172,1.0,2.5,0,0,70,70,100,6,29.47,0.0
173,1.0,2.5,0,0,70,70,100,9,29.46,0.23
174,1.0,6.0,0,0,70,70,100,10,29.45,0.0
175,0.625,10.0,0,0,70,69,97,8,29.45,0.0
176,1.0,10.0,0,0,70,69,97,7,29.44,0.0
177,0.625,10.0,0,0,69,68,97,0,29.42,0.0
178,0.375,10.0,0,0,68,68,100,3,29.41,0.0
179,0.625,10.0,1,0,68,68,100,6,29.4,0.0
180,0.375,10.0,0,0,70,69,97,3,29.41,0.0
181,0.625,10.0,0,0,75,71,87,3,29.4,0.0
182,1.0,10.0,0,0,81,72,74,6,29.39,0.0
183,1.0,10.0,0,0,84,72,67,11,29.38,0.0
184,0.625,10.0,0,0,84,73,70,13,29.36,0.0
185,0.625,10.0,0,0,87,72,61,11,29.34,0.0
186,0.625,10.0,0,0,88,71,57,15,29.31,0.0
187,0.625,10.0,0,0,86,70,59,16,29.31,0.0
188,1.0,1.0,0,1,81,73,77,26,29.34,0.0
189,0.625,0.75,0,0,76,74,94,22,29.35,0.0
190,1.0,0.5,1,1,75,75,100,18,29.34,0.0
191,0.625,1.0,0,0,73,73,100,14,29.32,0.0
192,0.625,3.0,0,0,75,74,97,8,29.31,0.0
193,0.625,10.0,0,0,76,73,90,3,29.31,1.14
194,0.625,10.0,0,0,79,75,88,7,29.31,0.0
195,0.375,10.0,0,0,81,76,85,8,29.3,0.0
196,0.375,10.0,0,0,82,75,79,8,29.3,0.0
197,0.375,10.0,0,0,81,74,79,7,29.3,0.0
198,0.625,10.0,0,0,79,76,91,6,29.32,0.0
199,1.0,3.0,0,0,79,76,91,17,29.34,0.0
200,1.0,8.0,0,0,77,73,88,9,29.34,0.0
201,0.625,10.0,0,0,77,73,88,6,29.34,0.16
202,0.625,10.0,0,0,76,73,90,5,29.34,0.0
203,1.0,10.0,0,0,76,73,90,6,29.34,0.0
204,0.625,10.0,0,0,76,73,90,10,29.35,0.0
205,1.0,10.0,0,0,75,73,94,9,29.35,0.0
206,1.0,10.0,0,0,75,73,94,8,29.35,0.0
207,1.0,10.0,0,0,75,73,94,9,29.37,0.0
208,1.0,10.0,0,0,75,72,90,9,29.38,0.0
209,1.0,10.0,0,0,75,72,90,9,29.38,0.0
210,1.0,10.0,0,0,74,72,94,9,29.4,0.0
211,1.0,10.0,0,0,74,71,90,7,29.42,0.0
212,1.0,10.0,0,0,73,69,87,6,29.44,0.0
213,0.625,10.0,0,0,72,69,90,3,29.45,0.0
214,0.625,10.0,0,0,74,69,84,3,29.46,0.0
215,0.625,10.0,0,0,74,68,82,5,29.47,0.0
216,0.375,10.0,0,0,76,68,76,9,29.48,0.0
217,0.375,10.0,0,0,78,67,69,7,29.48,0.0
218,0.625,10.0,0,0,80,68,67,7,29.48,0.0
219,1.0,10.0,0,0,81,67,63,5,29.48,0.0
220,0.625,10.0,0,0,80,66,62,5,29.49,0.0
221,0.625,10.0,0,0,81,65,58,6,29.48,0.0
222,0.625,10.0,0,0,82,66,58,9,29.48,0.0
223,0.375,10.0,0,0,82,65,56,8,29.48,0.0
224,0.625,10.0,0,0,81,63,54,10,29.49,0.0
225,0.625,10.0,0,0,78,63,60,7,29.51,0.0
226,0.625,10.0,0,0,73,64,74,3,29.53,0.0
227,0.375,10.0,0,0,72,65,79,0,29.55,0.0
228,0.625,10.0,0,0,71,66,84,0,29.55,0.0
229,0.625,10.0,0,0,71,65,81,3,29.55,0.0
230,0.625,10.0,0,0,69,65,87,0,29.55,0.0
231,0.625,10.0,0,0,67,65,93,3,29.54,0.0
232,0.625,10.0,0,0,67,64,90,5,29.54,0.0
233,1.0,10.0,0,0,67,64,90,3,29.53,0.0
234,1.0,10.0,0,0,66,64,93,0,29.53,0.0
235,1.0,10.0,0,0,65,64,97,6,29.52,0.0
236,0.625,10.0,0,0,64,64,100,5,29.52,0.0
237,0.625,10.0,0,0,65,64,97,3,29.52,0.0
238,1.0,10.0,0,0,66,65,97,7,29.51,0.0
239,1.0,10.0,0,0,67,66,97,6,29.51,0.0
240,0.625,10.0,0,0,71,67,87,8,29.49,0.0
241,1.0,10.0,0,0,73,68,84,6,29.47,0.0
242,0.625,10.0,0,0,79,72,79,7,29.44,0.0
243,0.625,10.0,0,0,79,71,77,7,29.45,0.0
244,0.375,10.0,0,0,80,70,72,15,29.43,0.0
245,0.375,10.0,0,0,82,70,67,14,29.43,0.0
246,0.375,10.0,0,0,85,69,59,13,29.41,0.0
247,0.625,10.0,0,0,86,69,57,13,29.38,0.0
248,0.625,10.0,0,0,88,71,57,11,29.36,0.0
249,0.625,10.0,0,0,87,70,57,14,29.35,0.0
250,0.375,10.0,0,0,86,70,59,14,29.32,0.0
251,0.375,10.0,0,0,84,70,63,10,29.3,0.0
252,0.375,10.0,0,0,83,69,63,10,29.3,0.0
253,0.375,10.0,0,0,83,69,63,14,29.31,0.0
254,0.625,10.0,0,0,84,69,61,18,29.31,0.0
255,1.0,10.0,0,0,84,68,59,20,29.3,0.0
256,0.625,10.0,0,0,83,68,61,16,29.29,0.0
257,0.625,10.0,0,0,83,68,61,18,29.28,0.0
258,0.625,10.0,0,0,82,69,65,17,29.29,0.0
259,0.625,10.0,0,0,81,66,60,14,29.29,0.0
260,0.625,10.0,0,0,74,70,87,9,29.3,0.0
261,0.625,10.0,0,1,73,70,90,5,29.29,0.0
262,0.625,10.0,0,1,73,70,90,5,29.29,0.02
263,0.625,10.0,0,0,73,70,90,7,29.3,0.0
264,0.625,10.0,0,0,73,67,82,14,29.34,0.0
265,1.0,10.0,0,0,69,63,81,17,29.37,0.0
266,1.0,9.0,0,0,64,62,93,18,29.42,0.02
267,1.0,6.0,0,0,61,60,97,13,29.44,0.08
268,0.625,10.0,0,0,62,60,93,10,29.45,0.01
269,0.375,10.0,0,0,63,61,93,16,29.49,0.0
270,0.625,10.0,0,0,65,61,87,16,29.52,0.0
271,0.625,10.0,0,0,64,61,90,14,29.52,0.0
272,0.625,10.0,0,0,65,61,87,17,29.52,0.0
273,0.375,10.0,0,0,68,59,73,16,29.56,0.0
274,0.625,10.0,0,0,68,54,61,21,29.58,0.0
275,0.375,10.0,0,0,69,51,53,17,29.62,0.0
276,0.375,10.0,0,0,69,50,51,18,29.64,0.0
277,0.375,10.0,0,0,69,48,47,14,29.66,0.0
278,0.375,10.0,0,0,69,47,46,15,29.66,0.0
279,0.375,10.0,0,0,69,49,49,15,29.66,0.0
280,0.375,10.0,0,0,68,49,51,10,29.68,0.0
281,0.375,10.0,0,0,67,49,53,11,29.68,0.0
282,0.125,10.0,0,0,65,50,59,9,29.69,0.0
283,0.125,10.0,0,0,62,51,67,6,29.7,0.0
284,0.125,10.0,0,0,60,53,78,0,29.72,0.0
285,0.125,10.0,0,0,58,53,84,0,29.72,0.0
286,0.125,10.0,0,0,57,52,83,0,29.72,0.0
287,0.125,10.0,0,0,56,52,87,0,29.72,0.0
288,0.125,10.0,0,0,54,51,90,3,29.73,0.0
289,0.125,10.0,0,0,54,51,90,0,29.73,0.0
290,0.125,10.0,0,0,54,50,86,3,29.73,0.0
291,0.0,10.0,0,0,53,50,90,0,29.74,0.0
292,0.0,10.0,0,0,52,49,90,3,29.75,0.0
293,0.0,10.0,0,0,51,49,93,5,29.77,0.0
294,0.125,10.0,0,0,50,49,96,3,29.77,0.0
295,0.125,10.0,0,0,54,51,90,0,29.79,0.0
296,0.125,10.0,0,0,58,52,81,0,29.8,0.0
297,0.125,10.0,0,0,63,53,70,3,29.8,0.0
298,0.125,10.0,0,0,68,54,61,5,29.8,0.0
299,0.375,10.0,0,0,70,55,59,5,29.79,0.0
300,0.375,10.0,0,0,73,53,50,7,29.78,0.0
301,0.375,10.0,0,0,73,53,50,8,29.76,0.0
302,0.375,10.0,0,0,74,52,46,9,29.74,0.0
303,0.375,10.0,0,0,75,51,43,8,29.72,0.0
304,0.375,10.0,0,0,75,49,40,8,29.71,0.0
305,0.125,10.0,0,0,74,48,40,3,29.71,0.0
306,0.125,10.0,0,0,72,49,44,6,29.7,0.0
307,0.125,10.0,0,0,64,55,73,7,29.7,0.0
308,0.125,10.0,0,0,63,56,78,5,29.71,0.0
309,0.125,10.0,0,0,60,54,81,5,29.71,0.0
310,0.125,10.0,0,0,59,53,81,3,29.7,0.0
311,0.125,10.0,0,0,58,53,84,5,29.7,0.0
312,0.125,10.0,0,0,57,52,83,3,29.69,0.0
313,0.0,10.0,0,0,55,51,86,5,29.69,0.0
314,0.0,10.0,0,0,55,51,86,5,29.69,0.0
315,0.0,10.0,0,0,55,51,86,3,29.69,0.0
316,0.0,10.0,0,0,52,50,93,6,29.69,0.0
317,0.0,10.0,0,0,53,50,90,6,29.69,0.0
318,0.125,10.0,0,0,53,50,90,5,29.68,0.0
319,0.125,10.0,0,0,57,53,87,5,29.68,0.0
320,0.375,10.0,0,0,63,54,73,5,29.68,0.0
321,0.125,10.0,0,0,71,55,57,7,29.67,0.0
322,0.125,10.0,0,0,74,57,56,9,29.66,0.0
323,0.0,10.0,0,0,77,58,52,9,29.65,0.0
324,0.375,10.0,0,0,79,58,49,8,29.62,0.0
325,0.375,10.0,0,0,81,59,47,15,29.6,0.0
326,0.375,10.0,0,0,81,58,46,15,29.58,0.0
327,0.375,10.0,0,0,82,58,44,15,29.57,0.0
328,0.375,10.0,0,0,82,58,44,11,29.55,0.0
329,0.375,10.0,0,0,82,59,46,9,29.54,0.0
330,0.375,10.0,0,0,77,62,60,11,29.56,0.0
331,0.375,10.0,0,0,72,61,68,7,29.57,0.0
332,0.125,10.0,0,0,68,61,78,0,29.58,0.0
333,0.125,10.0,0,0,67,60,78,0,29.59,0.0
334,0.375,10.0,0,0,66,61,84,0,29.59,0.0
335,0.375,10.0,0,0,65,61,87,3,29.58,0.0
336,0.375,10.0,0,0,64,61,90,0,29.58,0.0
337,0.375,10.0,0,0,62,60,93,0,29.57,0.0
338,0.375,10.0,0,0,62,59,90,0,29.56,0.0
339,0.375,10.0,0,0,62,59,90,0,29.56,0.0
340,0.625,10.0,0,0,63,59,87,0,29.55,0.0
341,0.625,10.0,0,0,64,59,84,0,29.56,0.0
342,1.0,10.0,0,0,68,59,73,9,29.57,0.0
343,1.0,10.0,0,0,70,60,71,11,29.58,0.0
344,1.0,10.0,0,0,71,63,76,10,29.6,0.0
345,1.0,10.0,0,0,70,64,81,13,29.61,0.0
346,1.0,10.0,0,0,70,64,81,14,29.61,0.0
347,0.625,10.0,0,0,70,64,81,11,29.62,0.0
348,1.0,10.0,0,0,68,64,87,10,29.63,0.0
349,1.0,10.0,0,0,70,63,79,11,29.64,0.0
350,0.625,10.0,0,0,73,62,69,14,29.65,0.0
351,0.625,10.0,0,0,71,60,68,17,29.66,0.0
352,0.625,10.0,0,0,68,57,68,16,29.67,0.0
353,0.625,10.0,0,0,69,56,63,15,29.69,0.0
354,0.625,10.0,0,0,68,54,61,14,29.7,0.0
355,0.625,10.0,0,0,66,53,63,15,29.72,0.0
356,0.375,10.0,0,0,63,52,68,8,29.73,0.0
357,0.125,10.0,0,0,60,52,75,5,29.74,0.0
358,0.375,10.0,0,0,58,52,81,5,29.78,0.0
359,0.125,10.0,0,0,57,50,78,6,29.79,0.0
360,0.125,10.0,0,0,55,48,77,5,29.8,0.0
361,0.125,10.0,0,0,55,48,77,3,29.82,0.0
362,0.125,10.0,0,0,52,48,86,0,29.83,0.0
363,0.125,10.0,0,0,50,47,90,3,29.84,0.0
364,0.125,10.0,0,0,49,47,93,0,29.84,0.0
365,0.0,10.0,0,0,48,46,93,0,29.85,0.0
366,0.125,10.0,0,0,46,45,96,5,29.84,0.0
367,0.125,10.0,0,0,47,46,96,3,29.85,0.0
368,0.125,10.0,1,0,44,44,100,0,29.87,0.0
369,0.125,10.0,0,0,49,48,96,0,29.88,0.0
370,0.125,10.0,0,0,53,49,86,3,29.9,0.0
371,0.125,10.0,0,0,57,50,78,0,29.9,0.0
372,0.125,10.0,0,0,60,50,70,0,29.89,0.0
373,0.125,10.0,0,0,62,49,63,0,29.88,0.0
374,0.125,10.0,0,0,64,48,56,5,29.87,0.0
375,0.125,10.0,0,0,66,47,51,0,29.85,0.0
376,0.375,10.0,0,0,68,46,45,7,29.82,0.0
377,0.375,10.0,0,0,68,43,41,5,29.81,0.0
378,0.375,10.0,0,0,69,41,36,0,29.8,0.0
379,0.375,10.0,0,0,67,44,44,5,29.8,0.0
380,0.375,10.0,0,0,62,52,70,8,29.8,0.0
381,0.375,10.0,0,0,58,51,78,0,29.81,0.0
382,0.125,10.0,0,0,56,51,83,0,29.82,0.0
383,0.0,10.0,0,0,54,51,90,0,29.82,0.0
384,0.0,10.0,0,0,53,51,93,3,29.82,0.0
385,0.0,10.0,0,0,52,50,93,3,29.81,0.0
386,0.0,10.0,0,0,50,49,96,5,29.82,0.0
387,0.0,10.0,0,0,50,48,93,5,29.82,0.0
388,0.0,10.0,0,0,49,47,93,0,29.81,0.0
389,0.0,10.0,0,0,47,46,96,0,29.8,0.0
390,0.0,10.0,0,0,46,45,96,3,29.81,0.0
391,0.0,10.0,0,0,45,44,96,3,29.81,0.0
392,0.375,10.0,0,0,44,43,96,5,29.83,0.0
393,0.375,10.0,0,0,46,45,96,6,29.84,0.0
394,0.375,10.0,0,0,53,49,86,7,29.82,0.0
395,0.625,10.0,0,0,59,51,75,6,29.83,0.0
396,0.625,10.0,0,0,67,55,66,5,29.81,0.0
397,0.625,10.0,0,0,70,53,55,7,29.8,0.0
398,0.375,10.0,0,0,73,56,55,10,29.78,0.0
399,0.375,10.0,0,0,74,54,50,7,29.75,0.0
400,0.375,10.0,0,0,75,52,45,10,29.73,0.0
401,0.375,10.0,0,0,76,52,43,11,29.71,0.0
402,0.625,10.0,0,0,75,53,46,11,29.69,0.0
403,0.625,10.0,0,0,74,53,48,9,29.69,0.0
404,0.625,10.0,0,0,71,54,55,7,29.68,0.0
405,0.625,10.0,0,0,69,54,59,5,29.7,0.0
406,0.625,10.0,0,0,65,55,70,7,29.7,0.0
407,0.625,10.0,0,0,68,53,59,10,29.7,0.0
408,0.625,10.0,0,0,66,53,63,3,29.7,0.0
409,0.625,10.0,0,0,65,53,65,6,29.69,0.0
410,0.625,10.0,0,0,64,53,68,5,29.69,0.0
411,0.625,10.0,0,0,64,53,68,9,29.68,0.0
412,0.625,10.0,0,0,64,53,68,7,29.67,0.0
413,0.375,10.0,0,0,63,52,68,8,29.66,0.0
414,0.375,10.0,0,0,60,52,75,7,29.65,0.0
415,0.375,10.0,0,0,58,53,84,8,29.64,0.0
416,0.625,10.0,0,0,60,53,78,8,29.64,0.0
417,0.625,10.0,0,0,61,54,78,7,29.64,0.0
418,0.625,10.0,0,0,66,56,70,7,29.63,0.0
419,0.625,10.0,0,0,69,57,66,8,29.62,0.0
420,0.625,10.0,0,0,72,59,64,15,29.59,0.0
421,0.625,10.0,0,0,74,60,62,16,29.59,0.0
422,0.625,10.0,0,0,77,62,60,13,29.56,0.0
423,0.625,10.0,0,0,75,62,64,15,29.55,0.0
424,1.0,10.0,0,0,75,62,64,11,29.54,0.0
425,1.0,10.0,0,0,75,63,66,9,29.52,0.0
426,1.0,10.0,0,0,73,64,74,11,29.51,0.0
427,1.0,10.0,0,0,73,63,71,16,29.5,0.0
428,1.0,10.0,0,0,72,63,73,15,29.5,0.0
429,1.0,10.0,0,0,72,63,73,13,29.49,0.0
430,1.0,10.0,0,0,72,63,73,11,29.51,0.0
431,1.0,10.0,0,0,72,64,76,9,29.52,0.0
432,1.0,8.0,0,0,69,65,87,7,29.51,0.02
433,1.0,8.0,0,0,68,66,93,8,29.5,0.07
434,1.0,4.0,0,0,67,66,97,10,29.49,0.27
435,0.625,6.0,0,0,68,66,93,3,29.48,0.1
436,1.0,2.5,0,0,68,66,93,10,29.48,0.0
437,1.0,1.5,0,0,66,66,100,9,29.49,0.0
438,1.0,1.5,0,0,67,66,97,9,29.49,0.53
439,1.0,1.5,0,0,67,67,100,9,29.49,0.0
440,1.0,2.0,0,0,67,67,100,13,29.49,0.0
441,1.0,5.0,0,0,67,67,100,9,29.49,0.0
442,1.0,10.0,0,0,68,66,93,7,29.49,0.25
443,0.625,9.0,0,0,68,67,97,5,29.49,0.1
444,1.0,10.0,0,0,67,66,97,5,29.5,0.01
445,0.625,10.0,0,0,67,66,97,5,29.51,0.0
446,0.625,10.0,0,0,68,67,97,3,29.52,0.0
447,0.375,10.0,0,0,70,68,93,6,29.53,0.0
448,0.625,10.0,0,0,72,67,84,9,29.55,0.0
449,0.625,10.0,0,0,73,67,82,10,29.55,0.0
450,0.625,10.0,0,0,74,67,79,6,29.55,0.0
451,0.625,10.0,0,0,76,68,76,9,29.55,0.0
452,0.625,10.0,0,0,76,66,71,8,29.53,0.0
453,0.625,10.0,0,0,78,64,62,8,29.53,0.0
454,0.625,10.0,0,0,78,65,64,8,29.52,0.0
455,0.625,10.0,0,0,79,64,60,11,29.51,0.0
456,0.625,10.0,0,0,78,63,60,5,29.5,0.0
457,0.625,10.0,0,0,78,64,62,5,29.49,0.0
458,0.625,10.0,0,1,77,65,67,7,29.5,0.0
459,0.625,10.0,0,1,76,66,71,7,29.5,0.0
460,1.0,10.0,0,0,72,65,79,9,29.52,0.0
461,1.0,10.0,0,0,71,65,81,8,29.51,0.0
462,0.625,10.0,0,1,70,64,81,6,29.52,0.0
463,0.625,10.0,0,1,70,65,84,0,29.53,0.0
464,0.625,2.0,0,1,68,66,93,8,29.54,0.0
465,0.625,1.5,0,1,67,67,100,13,29.55,0.0
466,0.625,2.5,0,1,66,65,97,7,29.55,0.0
467,0.625,3.0,0,1,66,65,97,6,29.56,0.0
468,0.625,4.0,0,0,65,65,100,5,29.56,0.35
469,0.625,3.0,0,0,65,65,100,8,29.56,0.0
470,0.625,1.75,0,0,66,66,100,8,29.55,0.0
471,0.625,3.0,0,0,66,66,100,7,29.54,0.0
472,0.625,10.0,0,0,66,66,100,6,29.54,0.3
473,1.0,10.0,0,0,65,65,100,3,29.53,0.0
474,1.0,10.0,0,0,66,65,97,3,29.53,0.0
475,1.0,10.0,0,0,65,65,100,0,29.53,0.01
476,1.0,10.0,0,0,65,65,100,3,29.53,0.0
477,1.0,10.0,0,0,65,65,100,0,29.53,0.0
478,1.0,6.0,0,0,64,64,100,0,29.53,0.0
479,1.0,6.0,0,0,64,64,100,0,29.55,0.0
480,1.0,6.0,0,0,65,65,100,0,29.56,0.0
481,1.0,7.0,1,0,64,64,100,0,29.57,0.0
482,1.0,10.0,0,0,68,67,97,0,29.58,0.0
483,1.0,10.0,0,0,69,66,90,3,29.59,0.0
484,0.625,10.0,0,0,70,67,90,5,29.59,0.0
485,0.625,10.0,0,0,72,67,84,5,29.59,0.0
486,0.625,10.0,0,0,74,66,76,6,29.59,0.0
487,0.625,10.0,0,0,73,64,74,3,29.59,0.0
488,0.625,10.0,0,0,74,65,74,0,29.59,0.0
489,0.625,10.0,0,0,76,65,69,8,29.59,0.0
490,0.625,10.0,0,0,77,64,64,5,29.58,0.0
491,0.625,10.0,0,0,77,65,67,5,29.58,0.0
492,0.625,10.0,0,0,77,62,60,7,29.58,0.0
493,0.625,10.0,0,0,78,61,56,0,29.58,0.0
494,0.625,10.0,0,0,77,60,56,6,29.58,0.0
495,0.625,10.0,0,0,73,63,71,5,29.58,0.0
496,0.375,10.0,0,0,69,64,84,3,29.59,0.0
497,0.375,10.0,0,0,67,64,90,0,29.6,0.0
498,0.375,10.0,0,0,66,64,93,3,29.62,0.0
499,0.375,10.0,0,0,64,63,97,3,29.63,0.0
500,0.375,10.0,0,0,62,61,97,5,29.62,0.0
501,0.125,10.0,0,0,61,60,97,5,29.62,0.0
502,0.0,10.0,0,0,61,60,97,5,29.61,0.0
503,0.0,10.0,0,0,61,59,93,5,29.61,0.0
504,0.0,10.0,0,0,60,59,97,0,29.63,0.0
505,0.0,10.0,0,0,59,58,97,3,29.64,0.0
506,0.0,10.0,0,0,59,58,97,5,29.65,0.0
507,0.125,8.0,1,0,58,58,100,6,29.65,0.0
508,0.125,9.0,1,0,61,60,97,3,29.66,0.0
509,0.125,10.0,0,0,65,62,90,0,29.67,0.0
510,0.125,10.0,0,0,71,64,79,0,29.67,0.0
511,0.125,10.0,0,0,75,64,69,3,29.67,0.0
512,0.125,10.0,0,0,79,61,54,8,29.66,0.0
513,0.125,10.0,0,0,81,56,42,8,29.64,0.0
514,0.125,10.0,0,0,83,57,41,8,29.62,0.0
515,0.125,10.0,0,0,84,57,40,10,29.61,0.0
516,0.125,10.0,0,0,83,56,40,10,29.6,0.0
517,0.125,10.0,0,0,83,57,41,10,29.61,0.0
518,0.375,10.0,0,0,79,63,58,11,29.62,0.0
519,0.375,10.0,0,0,73,63,71,7,29.63,0.0
520,0.375,10.0,0,0,71,63,76,3,29.65,0.0
521,0.125,10.0,0,0,69,63,81,6,29.68,0.0
522,0.375,10.0,0,0,68,62,81,3,29.68,0.0
523,0.125,10.0,0,0,66,61,84,7,29.69,0.0
524,0.0,10.0,0,0,66,61,84,8,29.7,0.0
525,0.0,10.0,0,0,63,59,87,5,29.71,0.0
526,0.0,10.0,0,0,62,56,81,3,29.72,0.0
527,0.0,10.0,0,0,60,55,84,0,29.72,0.0
528,0.0,10.0,0,0,58,55,90,0,29.74,0.0
529,0.0,10.0,0,0,57,55,93,0,29.75,0.0
530,0.0,10.0,0,0,55,53,93,0,29.76,0.0
531,0.125,10.0,0,0,55,53,93,3,29.76,0.0
532,0.375,10.0,0,0,57,54,90,0,29.77,0.0
533,0.375,10.0,0,0,62,55,78,0,29.78,0.0
534,0.375,10.0,0,0,67,55,66,0,29.79,0.0
535,0.375,10.0,0,0,71,53,53,0,29.79,0.0
536,0.375,10.0,0,0,73,53,50,0,29.77,0.0
537,0.375,10.0,0,0,75,48,39,6,29.77,0.0
538,0.375,10.0,0,0,77,48,36,7,29.76,0.0
539,0.375,10.0,0,0,77,50,39,8,29.75,0.0
540,0.625,10.0,0,0,78,52,40,5,29.75,0.0
541,0.625,10.0,0,0,76,53,45,8,29.75,0.0
542,0.625,10.0,0,0,76,53,45,6,29.75,0.0
543,0.625,10.0,0,0,70,59,68,0,29.74,0.0
544,0.375,10.0,0,0,64,56,75,0,29.73,0.0
545,0.375,10.0,0,0,65,57,75,5,29.74,0.0
546,0.375,10.0,0,0,62,57,84,5,29.73,0.0
547,0.375,10.0,0,0,61,56,84,5,29.73,0.0
548,0.375,10.0,0,0,60,55,84,5,29.71,0.0
549,0.125,10.0,0,0,59,54,84,5,29.71,0.0
550,0.125,10.0,0,0,56,54,93,6,29.72,0.0
551,0.125,10.0,0,0,56,54,93,5,29.72,0.0
552,0.125,10.0,0,0,54,53,96,0,29.72,0.0
553,0.125,10.0,0,0,52,52,100,3,29.73,0.0
554,0.125,10.0,0,0,54,53,96,3,29.73,0.0
555,0.375,10.0,0,0,53,53,100,3,29.73,0.0
556,0.375,10.0,0,0,54,53,96,5,29.75,0.0
557,0.375,10.0,0,0,59,55,87,7,29.73,0.0
558,0.375,10.0,0,0,68,57,68,5,29.72,0.0
559,0.375,10.0,0,0,72,58,62,5,29.69,0.0
560,0.125,10.0,0,0,77,59,54,5,29.67,0.0
561,0.375,10.0,0,0,81,55,41,5,29.65,0.0
562,0.375,10.0,0,0,82,55,40,7,29.64,0.0
563,0.625,10.0,0,0,83,56,40,8,29.62,0.0
564,0.625,10.0,0,0,84,57,40,11,29.61,0.0
565,0.625,10.0,0,0,83,56,40,9,29.6,0.0
566,0.375,10.0,0,0,82,58,44,7,29.59,0.0
567,0.375,10.0,0,0,73,62,69,3,29.59,0.0
568,0.625,10.0,0,0,71,61,71,3,29.58,0.0
569,0.375,10.0,0,0,71,59,66,0,29.58,0.0
570,0.375,10.0,0,0,69,57,66,7,29.58,0.0
571,0.125,10.0,0,0,68,57,68,0,29.57,0.0
572,0.125,10.0,0,0,67,57,70,0,29.55,0.0
573,0.125,10.0,0,0,67,56,68,0,29.56,0.0
574,0.625,10.0,0,0,67,56,68,0,29.55,0.0
575,0.625,10.0,0,0,66,57,73,0,29.55,0.0
576,0.625,10.0,0,0,66,56,70,0,29.53,0.0
577,0.625,10.0,0,0,66,58,76,3,29.55,0.0
578,0.625,10.0,0,0,64,59,84,0,29.55,0.0
579,0.625,10.0,0,0,64,59,84,0,29.55,0.0
580,1.0,10.0,0,0,64,60,87,0,29.56,0.0
581,1.0,10.0,0,0,67,60,78,5,29.55,0.0
582,1.0,10.0,0,0,67,63,87,10,29.58,0.0
583,1.0,10.0,0,0,66,64,93,16,29.58,0.0
584,1.0,10.0,0,0,66,63,90,11,29.58,0.0
585,1.0,10.0,0,0,66,62,87,14,29.6,0.0
586,1.0,10.0,0,0,64,60,87,11,29.6,0.0
587,1.0,10.0,0,0,64,59,84,8,29.6,0.0
588,1.0,10.0,0,0,63,59,87,11,29.61,0.0
589,1.0,10.0,0,0,63,58,84,8,29.61,0.0
590,1.0,10.0,0,0,63,58,84,8,29.6,0.0
591,1.0,10.0,0,0,63,59,87,8,29.6,0.0
592,1.0,10.0,0,0,63,58,84,3,29.6,0.0
593,1.0,10.0,0,0,64,58,81,8,29.59,0.0
594,1.0,10.0,0,0,63,58,84,11,29.6,0.0
595,1.0,10.0,0,0,62,57,84,10,29.6,0.0
596,1.0,10.0,0,0,61,56,84,8,29.61,0.0
597,1.0,10.0,0,0,60,56,87,11,29.61,0.0
598,1.0,10.0,0,0,58,56,93,10,29.62,0.0
599,0.625,10.0,0,0,58,56,93,6,29.63,0.0
600,0.625,10.0,0,0,58,56,93,7,29.63,0.0
601,0.625,10.0,0,0,58,56,93,7,29.63,0.0
602,0.625,10.0,0,0,58,55,90,8,29.64,0.0
603,0.625,10.0,0,0,57,53,87,9,29.65,0.0
604,0.625,10.0,0,0,57,51,80,7,29.67,0.0
605,0.625,10.0,0,0,56,50,80,10,29.69,0.0
606,0.625,10.0,0,0,55,49,80,7,29.68,0.0
607,0.375,10.0,0,0,53,49,86,8,29.71,0.0
608,0.375,10.0,0,0,50,47,90,6,29.71,0.0
609,0.375,10.0,0,0,49,47,93,3,29.71,0.0
610,0.125,10.0,0,0,48,47,96,7,29.69,0.0
611,0.375,10.0,0,0,48,46,93,6,29.7,0.0
612,0.375,10.0,0,0,46,45,96,6,29.7,0.0
613,0.125,10.0,0,0,46,45,96,0,29.72,0.0
614,0.125,10.0,0,0,46,45,96,3,29.73,0.0
615,0.125,8.0,1,0,45,44,96,0,29.74,0.0
616,0.375,10.0,1,0,47,46,96,0,29.76,0.0
617,0.375,10.0,0,0,51,48,90,3,29.77,0.0
618,0.375,10.0,0,0,54,50,86,0,29.78,0.0
620,0.625,10.0,0,0,60,43,54,6,29.77,0.0
621,0.375,10.0,0,0,61,41,48,9,29.76,0.0
622,0.125,10.0,0,0,63,41,45,9,29.74,0.0
623,0.375,10.0,0,0,63,39,41,10,29.73,0.0
624,0.125,10.0,0,0,63,37,38,13,29.73,0.0
625,0.125,10.0,0,0,62,39,43,14,29.72,0.0
626,0.125,10.0,0,0,60,38,44,9,29.73,0.0
627,0.125,10.0,0,0,57,40,53,7,29.74,0.0
628,0.125,10.0,0,0,52,42,69,5,29.74,0.0
629,0.0,10.0,0,0,51,41,69,5,29.75,0.0
630,0.0,10.0,0,0,51,42,71,0,29.75,0.0
631,0.625,10.0,0,0,50,43,77,5,29.74,0.0
632,0.625,10.0,0,0,50,45,83,5,29.76,0.0
633,0.375,10.0,0,0,49,43,80,5,29.76,0.0
634,0.625,10.0,0,0,48,43,83,7,29.77,0.0
635,0.375,10.0,0,0,46,43,89,0,29.77,0.0
636,0.125,10.0,0,0,44,41,89,0,29.77,0.0
637,0.125,10.0,0,0,42,41,96,0,29.77,0.0
638,0.0,10.0,0,0,41,40,96,0,29.78,0.0
639,0.0,10.0,0,0,40,39,96,0,29.79,0.0
640,0.0,10.0,0,0,42,40,93,0,29.8,0.0
641,0.125,10.0,0,0,49,42,77,0,29.81,0.0
642,0.125,10.0,0,0,51,41,69,6,29.82,0.0
643,0.125,10.0,0,0,54,37,53,7,29.82,0.0
644,0.125,10.0,0,0,56,36,47,0,29.81,0.0
645,0.125,10.0,0,0,59,32,36,6,29.79,0.0
646,0.125,10.0,0,0,61,33,35,0,29.78,0.0
647,0.375,10.0,0,0,62,34,35,3,29.76,0.0
648,0.375,10.0,0,0,63,35,35,3,29.74,0.0
649,0.375,10.0,0,0,62,36,38,3,29.73,0.0
650,0.625,10.0,0,0,61,37,41,7,29.73,0.0
651,0.625,10.0,0,0,55,42,62,6,29.73,0.0
652,0.375,10.0,0,0,51,42,71,6,29.74,0.0
653,0.125,10.0,0,0,50,43,77,0,29.75,0.0
654,0.375,10.0,0,0,49,43,80,3,29.76,0.0
655,0.125,10.0,0,0,49,43,80,3,29.75,0.0
656,0.625,10.0,0,0,46,42,86,5,29.74,0.0
657,0.375,10.0,0,0,45,41,86,6,29.73,0.0
658,0.375,10.0,0,0,44,41,89,3,29.73,0.0
659,0.375,10.0,0,0,44,41,89,3,29.72,0.0
660,0.625,10.0,0,0,42,40,93,8,29.69,0.0
661,0.625,10.0,0,0,41,39,93,6,29.68,0.0
662,0.625,10.0,0,0,40,39,96,8,29.67,0.0
663,0.375,10.0,0,0,40,39,96,7,29.67,0.0
664,0.625,10.0,0,0,43,40,89,8,29.67,0.0
665,1.0,10.0,0,0,50,43,77,9,29.64,0.0
666,1.0,10.0,0,0,57,44,62,8,29.62,0.0
667,1.0,10.0,0,0,62,43,50,14,29.6,0.0
668,1.0,10.0,0,0,63,46,54,11,29.57,0.0
669,1.0,10.0,0,0,66,47,51,14,29.54,0.0
670,1.0,10.0,0,0,68,49,51,9,29.5,0.0
671,1.0,10.0,0,0,71,51,49,14,29.47,0.0
672,1.0,10.0,0,0,70,52,53,13,29.45,0.0
673,0.625,10.0,0,0,69,52,55,18,29.42,0.0
674,1.0,10.0,0,0,68,52,57,9,29.43,0.0
675,1.0,10.0,0,0,66,52,61,8,29.42,0.0
676,1.0,10.0,0,0,65,53,65,11,29.44,0.0
677,1.0,10.0,0,0,64,54,70,13,29.45,0.0
678,1.0,10.0,0,0,61,56,84,15,29.44,0.0
679,1.0,10.0,0,0,60,57,90,10,29.44,0.0
680,1.0,10.0,0,0,60,57,90,7,29.44,0.01
681,1.0,10.0,0,0,60,57,90,9,29.43,0.0
682,1.0,10.0,0,0,61,58,90,15,29.43,0.0
683,1.0,10.0,0,0,61,58,90,10,29.43,0.0
684,1.0,10.0,0,0,60,55,84,10,29.44,0.0
685,0.625,10.0,0,0,57,52,83,6,29.44,0.0
686,0.625,10.0,0,0,54,50,86,0,29.43,0.0
687,0.625,10.0,0,0,50,50,100,0,29.43,0.0
688,0.625,10.0,0,0,51,49,93,0,29.43,0.0
689,0.625,10.0,0,0,51,50,96,3,29.43,0.0
690,0.625,10.0,0,0,53,52,96,3,29.44,0.0
691,0.375,10.0,0,0,61,52,72,7,29.44,0.0
692,0.375,10.0,0,0,63,50,63,9,29.44,0.0
693,0.375,10.0,0,0,66,50,57,8,29.43,0.0
694,0.375,10.0,0,0,68,45,44,8,29.42,0.0
695,0.375,10.0,0,0,69,42,38,11,29.4,0.0
696,0.375,10.0,0,0,70,38,31,8,29.38,0.0
697,0.375,10.0,0,0,71,39,31,11,29.38,0.0
698,0.625,10.0,0,0,72,35,26,15,29.38,0.0
699,0.625,10.0,0,0,71,34,26,13,29.39,0.0
700,0.375,10.0,0,0,68,36,31,7,29.4,0.0
701,0.375,10.0,0,0,61,42,50,0,29.42,0.0
702,0.375,10.0,0,0,56,47,72,0,29.44,0.0
703,0.375,10.0,0,0,55,48,77,5,29.46,0.0
704,0.375,10.0,0,0,55,45,69,5,29.48,0.0
705,0.375,10.0,0,0,51,44,77,6,29.49,0.0
706,0.375,10.0,0,0,52,44,74,5,29.51,0.0
707,0.375,10.0,0,0,51,44,77,5,29.52,0.0
708,0.375,10.0,0,0,47,45,93,6,29.53,0.0
709,0.125,10.0,0,0,47,44,89,6,29.54,0.0
710,0.125,10.0,0,0,47,45,93,8,29.55,0.0
711,0.125,10.0,0,0,46,45,96,6,29.56,0.0
712,0.125,10.0,0,0,46,44,93,5,29.58,0.0
713,0.125,10.0,0,0,45,44,96,5,29.6,0.0
714,0.375,10.0,0,0,48,46,93,8,29.61,0.0
715,0.125,10.0,0,0,52,48,86,9,29.63,0.0
716,0.125,10.0,0,0,59,51,75,7,29.64,0.0
717,0.375,10.0,0,0,65,53,65,8,29.64,0.0
718,0.375,10.0,0,0,69,53,57,13,29.64,0.0
719,0.375,10.0,0,0,71,52,51,14,29.64,0.0
720,0.375,10.0,0,0,70,56,61,13,29.65,0.0
721,0.375,10.0,0,0,70,56,61,16,29.65,0.0
722,0.375,10.0,0,0,69,54,59,18,29.66,0.0
723,0.375,10.0,0,0,68,50,53,18,29.67,0.0
724,0.625,10.0,0,0,66,51,59,13,29.69,0.0
725,0.375,10.0,0,0,62,50,65,9,29.7,0.0
726,0.375,10.0,0,0,60,51,72,9,29.72,0.0
727,0.375,10.0,0,0,57,51,80,6,29.75,0.0
728,0.375,10.0,0,0,56,51,83,8,29.78,0.0
729,0.375,10.0,0,0,55,51,86,8,29.8,0.0
730,0.375,10.0,0,0,55,51,86,10,29.8,0.0
731,0.625,10.0,0,0,56,50,80,15,29.8,0.0
732,0.625,10.0,0,0,55,48,77,14,29.81,0.0
733,0.625,10.0,0,0,55,48,77,11,29.81,0.0
734,0.625,10.0,0,0,54,47,77,9,29.81,0.0
735,0.625,10.0,0,0,53,47,80,9,29.82,0.0
736,0.625,10.0,0,0,53,47,80,9,29.84,0.0
737,0.625,10.0,0,0,54,47,77,8,29.85,0.0
738,0.625,10.0,0,0,54,47,77,10,29.87,0.0
739,0.375,10.0,0,0,55,48,77,11,29.89,0.0
740,0.625,10.0,0,0,57,48,72,15,29.89,0.0
741,0.625,10.0,0,0,58,49,72,11,29.91,0.0
742,1.0,10.0,0,0,59,49,70,11,29.91,0.0
743,1.0,10.0,0,0,59,49,70,14,29.92,0.0
744,0.625,10.0,0,0,60,50,70,10,29.92,0.0
745,0.625,10.0,0,0,61,49,65,11,29.9,0.0
746,0.625,10.0,0,0,61,50,67,8,29.9,0.0
747,1.0,10.0,0,0,60,49,67,9,29.9,0.0
748,1.0,10.0,0,0,60,49,67,8,29.9,0.0
749,0.625,10.0,0,0,59,49,70,9,29.9,0.0
750,0.625,10.0,0,0,59,49,70,10,29.91,0.0
751,0.625,10.0,0,0,58,49,72,7,29.92,0.0
752,0.625,10.0,0,0,57,49,75,6,29.92,0.0
753,1.0,10.0,0,0,57,49,75,8,29.92,0.0
754,0.625,10.0,0,0,57,49,75,8,29.92,0.0
755,0.0,10.0,0,0,57,47,69,9,29.91,0.0
756,0.0,10.0,0,0,57,46,67,11,29.91,0.0
757,0.0,10.0,0,0,56,45,67,7,29.91,0.0
758,0.0,10.0,0,0,55,44,67,9,29.89,0.0
759,0.0,10.0,0,0,55,43,64,9,29.91,0.0
760,0.625,10.0,0,0,54,43,67,9,29.91,0.0
761,1.0,9.0,0,0,56,44,64,7,29.91,0.0
762,1.0,10.0,0,0,54,43,67,9,29.91,0.0
763,1.0,10.0,0,0,54,44,69,10,29.92,0.0
764,0.625,10.0,0,0,53,45,74,9,29.92,0.0
765,0.625,10.0,0,0,54,45,72,9,29.93,0.0
766,1.0,10.0,0,0,54,46,75,11,29.93,0.0
767,0.625,10.0,0,0,53,47,80,8,29.92,0.01
768,1.0,10.0,0,0,55,47,75,9,29.91,0.0
769,0.625,10.0,0,0,58,47,67,10,29.89,0.0
770,1.0,10.0,0,0,58,45,62,15,29.88,0.0
771,1.0,10.0,0,0,57,47,69,16,29.86,0.0
772,1.0,10.0,0,0,55,45,69,14,29.86,0.0
773,1.0,10.0,0,0,56,47,72,10,29.87,0.0
774,1.0,10.0,0,0,54,47,77,6,29.87,0.0
775,1.0,10.0,0,0,52,49,90,5,29.86,0.0
776,1.0,10.0,0,0,52,49,90,5,29.87,0.0
777,1.0,10.0,0,0,52,49,90,7,29.86,0.0
778,1.0,5.0,0,0,52,50,93,7,29.87,0.0
779,1.0,4.0,0,0,51,51,100,9,29.86,0.0
781,1.0,5.0,0,0,52,52,100,10,29.86,0.0
782,1.0,6.0,0,0,51,51,100,10,29.86,0.01
785,1.0,10.0,0,0,51,50,96,10,29.84,0.0
786,1.0,10.0,0,0,52,52,100,10,29.84,0.0
787,1.0,10.0,0,0,52,51,96,9,29.84,0.0
